%YAML 1.1
%TAG !u! tag:unity3d.com,2011:
--- !u!74 &7400000
AnimationClip:
  m_ObjectHideFlags: 0
  m_PrefabParentObject: {fileID: 0}
  m_PrefabInternal: {fileID: 0}
  m_Name: popup
  serializedVersion: 6
  m_Legacy: 0
  m_Compressed: 0
  m_UseHighQualityCurve: 1
  m_RotationCurves: []
  m_CompressedRotationCurves: []
  m_EulerCurves: []
  m_PositionCurves: []
  m_ScaleCurves:
  - curve:
      serializedVersion: 2
      m_Curve:
      - time: 0
        value: {x: 0.0015112878, y: 0.0015112876, z: 0.0015112876}
        inSlope: {x: 49.3204, y: 49.32039, z: 53.06583}
        outSlope: {x: 49.3204, y: 49.32039, z: 53.06583}
        tangentMode: 0
      - time: 0.18333334
        value: {x: 9.043585, y: 9.043583, z: 9.7302475}
        inSlope: {x: 16.115181, y: 16.115177, z: 17.339088}
        outSlope: {x: 16.115181, y: 16.115177, z: 17.339088}
        tangentMode: 0
      - time: 0.25
        value: {x: 7.904249, y: 7.9042473, z: 8.504404}
        inSlope: {x: -17.090036, y: -17.090036, z: -18.387653}
        outSlope: {x: -17.090036, y: -17.090036, z: -18.387653}
        tangentMode: 0
      m_PreInfinity: 2
      m_PostInfinity: 2
      m_RotationOrder: 4
    path: 
  m_FloatCurves: []
  m_PPtrCurves: []
  m_SampleRate: 60
  m_WrapMode: 0
  m_Bounds:
    m_Center: {x: 0, y: 0, z: 0}
    m_Extent: {x: 0, y: 0, z: 0}
  m_ClipBindingConstant:
    genericBindings:
    - path: 0
      attribute: 3
      script: {fileID: 0}
      classID: 4
      customType: 0
      isPPtrCurve: 0
    pptrCurveMapping: []
  m_AnimationClipSettings:
    serializedVersion: 2
    m_AdditiveReferencePoseClip: {fileID: 0}
    m_AdditiveReferencePoseTime: 0
    m_StartTime: 0
    m_StopTime: 0.25
    m_OrientationOffsetY: 0
    m_Level: 0
    m_CycleOffset: 0
    m_HasAdditiveReferencePose: 0
    m_LoopTime: 0
    m_LoopBlend: 0
    m_LoopBlendOrientation: 0
    m_LoopBlendPositionY: 0
    m_LoopBlendPositionXZ: 0
    m_KeepOriginalOrientation: 0
    m_KeepOriginalPositionY: 1
    m_KeepOriginalPositionXZ: 0
    m_HeightFromFeet: 0
    m_Mirror: 0
  m_EditorCurves:
  - curve:
      serializedVersion: 2
      m_Curve:
      - time: 0
        value: 0.0015112878
        inSlope: 49.3204
        outSlope: 49.3204
        tangentMode: 10
      - time: 0.18333334
        value: 9.043585
        inSlope: 16.115181
        outSlope: 16.115181
        tangentMode: 10
      - time: 0.25
        value: 7.904249
        inSlope: -17.090036
        outSlope: -17.090036
        tangentMode: 10
      m_PreInfinity: 2
      m_PostInfinity: 2
      m_RotationOrder: 4
    attribute: m_LocalScale.x
    path: 
    classID: 4
    script: {fileID: 0}
  - curve:
      serializedVersion: 2
      m_Curve:
      - time: 0
        value: 0.0015112876
        inSlope: 49.32039
        outSlope: 49.32039
        tangentMode: 10
      - time: 0.18333334
        value: 9.043583
        inSlope: 16.115177
        outSlope: 16.115177
        tangentMode: 10
      - time: 0.25
        value: 7.9042473
        inSlope: -17.090036
        outSlope: -17.090036
        tangentMode: 10
      m_PreInfinity: 2
      m_PostInfinity: 2
      m_RotationOrder: 4
    attribute: m_LocalScale.y
    path: 
    classID: 4
    script: {fileID: 0}
  - curve:
      serializedVersion: 2
      m_Curve:
      - time: 0
        value: 0.0015112876
        inSlope: 53.06583
        outSlope: 53.06583
        tangentMode: 10
      - time: 0.18333334
        value: 9.7302475
        inSlope: 17.339088
        outSlope: 17.339088
        tangentMode: 10
      - time: 0.25
        value: 8.504404
        inSlope: -18.387653
        outSlope: -18.387653
        tangentMode: 10
      m_PreInfinity: 2
      m_PostInfinity: 2
      m_RotationOrder: 4
    attribute: m_LocalScale.z
    path: 
    classID: 4
    script: {fileID: 0}
  m_EulerEditorCurves: []
  m_HasGenericRootTransform: 0
  m_HasMotionFloatCurves: 0
  m_GenerateMotionCurves: 0
  m_Events: []
